module bitbucket.org/pankaj-vasnani/health-care-management-system

go 1.13

require (
	github.com/badoux/checkmail v0.0.0-20181210160741-9661bd69e9ad
	github.com/dgrijalva/jwt-go v3.2.0+incompatible
	github.com/go-delve/delve v1.4.0
	github.com/gorilla/mux v1.7.4
	github.com/jinzhu/gorm v1.9.12
	github.com/joho/godotenv v1.3.0
	golang.org/x/crypto v0.0.0-20200320181102-891825fb96df
	gopkg.in/go-playground/assert.v1 v1.2.1
)
